-------------------------------------------------------------------------------
Test set: nl.han.aim.tourofheroes.HeroControllerTest
-------------------------------------------------------------------------------
Tests run: 2, Failures: 0, Errors: 0, Skipped: 0, Time elapsed: 0.986 s - in nl.han.aim.tourofheroes.HeroControllerTest
