-------------------------------------------------------------------------------
Test set: nl.han.aim.tourofheroes.HeroTest
-------------------------------------------------------------------------------
Tests run: 2, Failures: 0, Errors: 0, Skipped: 0, Time elapsed: 0.002 s - in nl.han.aim.tourofheroes.HeroTest
